{
  "(1.06466470, 1.00159610, 0.01736563, 0.04002977)": {
    "bns": 0.003171774768353528,
    "bbh": 0,
    "nsbh": 0
  },
  "(1.06846690, 1.00981900, -0.04284495, -0.03688201)": {
    "bns": 0.003171774768353528,
    "bbh": 0,
    "nsbh": 0
  },
  "(1.06364110, 1.00313350, 0.02684596, -0.01993422)": {
    "bns": 0.003171774768353528,
    "bbh": 0,
    "nsbh": 0
  },
  "(1.05703910, 1.00099840, -0.02815298, 0.04752654)": {
    "bns": 0.003171774768353528,
    "bbh": 0,
    "nsbh": 0
  },
  "(1.06400700, 1.00072950, 0.04136228, -0.02076365)": {
    "bns": 0.003171774768353528,
    "bbh": 0,
    "nsbh": 0
  },
  "(1.06550500, 1.00452120, 0.02712421, -0.03518765)": {
    "bns": 0.003171774768353528,
    "bbh": 0,
    "nsbh": 0
  },
  "(1.05812270, 1.00585470, -0.04885194, -0.04048005)": {
    "bns": 0.003171774768353528,
    "bbh": 0,
    "nsbh": 0
  },
  "(1.05320330, 1.00487400, -0.04703616, -0.04798435)": {
    "bns": 0.003171774768353528,
    "bbh": 0,
    "nsbh": 0
  },
  "(1.06011970, 1.00682210, 0.04638304, 0.04518098)": {
    "bns": 0.003171774768353528,
    "bbh": 0,
    "nsbh": 0
  },
  "(1.06176020, 1.00108140, -0.04537898, -0.03654591)": {
    "bns": 0.003171774768353528,
    "bbh": 0,
    "nsbh": 0
  },
  "(1.06866620, 1.00832320, 0.03049804, 0.04490419)": {
    "bns": 0.003171774768353528,
    "bbh": 0,
    "nsbh": 0
  },
  "(1.05375180, 1.00524710, -0.00419535, 0.02334939)": {
    "bns": 0.003171774768353528,
    "bbh": 0,
    "nsbh": 0
  },
  "(2.77084930, 1.00630690, -0.98290714, -0.04882380)": {
    "bns": 0.003171774768353528,
    "bbh": 0,
    "nsbh": 0
  },
  "(1.06354270, 1.00322510, -0.04959602, -0.03362326)": {
    "bns": 0.003171774768353528,
    "bbh": 0,
    "nsbh": 0
  },
  "(1.05080650, 1.00953130, 0.04984513, 0.04965929)": {
    "bns": 0.003171774768353528,
    "bbh": 0,
    "nsbh": 0
  },
  "(2.77989240, 1.00199150, -0.65427626, 0.02817279)": {
    "bns": 0.003171774768353528,
    "bbh": 0,
    "nsbh": 0
  },
  "(1.05728120, 1.00044320, -0.00881932, 0.01062021)": {
    "bns": 0.003171774768353528,
    "bbh": 0,
    "nsbh": 0
  },
  "(1.06185920, 1.00765050, -0.02470426, -0.03997746)": {
    "bns": 0.003171774768353528,
    "bbh": 0,
    "nsbh": 0
  },
  "(1.05542010, 1.00649890, 0.04847656, 0.03820423)": {
    "bns": 0.003171774768353528,
    "bbh": 0,
    "nsbh": 0
  },
  "(1.05072430, 1.00987980, -0.04136671, -0.00272737)": {
    "bns": 0.003171774768353528,
    "bbh": 0,
    "nsbh": 0
  },
  "(1.06147180, 1.00376950, -0.04957252, -0.01965008)": {
    "bns": 0.003171774768353528,
    "bbh": 0,
    "nsbh": 0
  },
  "(1.36322930, 1.27101010, 0.04926984, 0.04800726)": {
    "bns": 0.003171774768353528,
    "bbh": 0,
    "nsbh": 0
  },
  "(1.06642680, 1.00500780, -0.04680961, 0.03084569)": {
    "bns": 0.003171774768353528,
    "bbh": 0,
    "nsbh": 0
  },
  "(1.06417180, 1.00440290, -0.02776842, -0.01507834)": {
    "bns": 0.003171774768353528,
    "bbh": 0,
    "nsbh": 0
  },
  "(2.77008670, 1.00960570, -0.00857545, 0.02955851)": {
    "bns": 0.003171774768353528,
    "bbh": 0,
    "nsbh": 0
  },
  "(1.05971100, 1.00330460, 0.04929995, -0.04805749)": {
    "bns": 0.003171774768353528,
    "bbh": 0,
    "nsbh": 0
  },
  "(1.05502350, 1.00259680, 0.02775900, 0.03114070)": {
    "bns": 0.003171774768353528,
    "bbh": 0,
    "nsbh": 0
  },
  "(1.06324940, 1.00541040, -0.02942845, -0.02293336)": {
    "bns": 0.003171774768353528,
    "bbh": 0,
    "nsbh": 0
  },
  "(1.05171910, 1.00763710, 0.00551505, 0.04785932)": {
    "bns": 0.003171774768353528,
    "bbh": 0,
    "nsbh": 0
  },
  "(2.77229350, 1.00963280, -0.66952291, 0.01716679)": {
    "bns": 0.003171774768353528,
    "bbh": 0,
    "nsbh": 0
  },
  "(1.05030000, 1.00479990, -0.02018675, -0.02819181)": {
    "bns": 0.003171774768353528,
    "bbh": 0,
    "nsbh": 0
  },
  "(1.06309130, 1.00702350, -0.00701622, -0.04251705)": {
    "bns": 0.003171774768353528,
    "bbh": 0,
    "nsbh": 0
  },
  "(2.77775340, 1.00912450, -0.06178688, 0.04780368)": {
    "bns": 0.003171774768353528,
    "bbh": 0,
    "nsbh": 0
  },
  "(1.06503610, 1.00197660, 0.04768393, 0.04808413)": {
    "bns": 0.003171774768353528,
    "bbh": 0,
    "nsbh": 0
  },
  "(1.05329190, 1.00345610, 0.01983748, 0.00716666)": {
    "bns": 0.003171774768353528,
    "bbh": 0,
    "nsbh": 0
  },
  "(2.77296010, 1.00786930, 0.31887613, 0.03574872)": {
    "bns": 0.003171774768353528,
    "bbh": 0,
    "nsbh": 0
  },
  "(1.06242270, 1.00079220, -0.04539594, -0.04276736)": {
    "bns": 0.003171774768353528,
    "bbh": 0,
    "nsbh": 0
  },
  "(1.06116060, 1.00589500, -0.02553570, -0.02356753)": {
    "bns": 0.003171774768353528,
    "bbh": 0,
    "nsbh": 0
  },
  "(1.05600640, 1.00921240, -0.04876141, -0.04725819)": {
    "bns": 0.003171774768353528,
    "bbh": 0,
    "nsbh": 0
  },
  "(1.06706260, 1.00387080, -0.04837862, -0.04818347)": {
    "bns": 0.003171774768353528,
    "bbh": 0,
    "nsbh": 0
  },
  "(1.05423770, 1.00521540, -0.02432580, -0.01074166)": {
    "bns": 0.003171774768353528,
    "bbh": 0,
    "nsbh": 0
  },
  "(1.05048490, 1.00436920, 0.01527026, 0.03059096)": {
    "bns": 0.003171774768353528,
    "bbh": 0,
    "nsbh": 0
  },
  "(1.06105990, 1.00935240, 0.04848506, -0.00922115)": {
    "bns": 0.003171774768353528,
    "bbh": 0,
    "nsbh": 0
  },
  "(1.05810720, 1.00323120, 0.01743646, 0.03468445)": {
    "bns": 0.003171774768353528,
    "bbh": 0,
    "nsbh": 0
  },
  "(2.77453710, 1.00854360, -0.20744725, 0.04910088)": {
    "bns": 0.003171774768353528,
    "bbh": 0,
    "nsbh": 0
  },
  "(1.06538010, 1.00714420, -0.03819086, -0.04916427)": {
    "bns": 0.003171774768353528,
    "bbh": 0,
    "nsbh": 0
  },
  "(1.06704080, 1.00996800, -0.01518710, -0.02554511)": {
    "bns": 0.003171774768353528,
    "bbh": 0,
    "nsbh": 0
  },
  "(1.06047520, 1.00470860, -0.02812065, -0.00689686)": {
    "bns": 0.003171774768353528,
    "bbh": 0,
    "nsbh": 0
  },
  "(1.06092230, 1.00180710, -0.01210979, -0.03908627)": {
    "bns": 0.003171774768353528,
    "bbh": 0,
    "nsbh": 0
  },
  "(1.05272590, 1.00472240, -0.02019097, -0.03579386)": {
    "bns": 0.003171774768353528,
    "bbh": 0,
    "nsbh": 0
  },
  "(1.05965320, 1.00181590, -0.04192287, -0.00790369)": {
    "bns": 0.003171774768353528,
    "bbh": 0,
    "nsbh": 0
  },
  "(1.06978000, 1.00423960, -0.03299494, -0.00446136)": {
    "bns": 0.003171774768353528,
    "bbh": 0,
    "nsbh": 0
  },
  "(1.06260190, 1.00314930, -0.04858134, -0.01774770)": {
    "bns": 0.003171774768353528,
    "bbh": 0,
    "nsbh": 0
  },
  "(2.77591240, 1.00149060, -0.76736270, -0.01755387)": {
    "bns": 0.003171774768353528,
    "bbh": 0,
    "nsbh": 0
  },
  "(1.06321400, 1.00047510, 0.04951628, 0.04688074)": {
    "bns": 0.003171774768353528,
    "bbh": 0,
    "nsbh": 0
  },
  "(1.06638670, 1.00230770, -0.04990399, -0.04217010)": {
    "bns": 0.003171774768353528,
    "bbh": 0,
    "nsbh": 0
  },
  "(1.05408510, 1.00083770, -0.03536697, -0.02607881)": {
    "bns": 0.003171774768353528,
    "bbh": 0,
    "nsbh": 0
  },
  "(1.06281250, 1.00653120, 0.04004898, 0.01418547)": {
    "bns": 0.003171774768353528,
    "bbh": 0,
    "nsbh": 0
  },
  "(1.05463320, 1.00109920, 0.03625107, 0.03593098)": {
    "bns": 0.003171774768353528,
    "bbh": 0,
    "nsbh": 0
  },
  "(1.05701230, 1.00604320, -0.04777357, -0.04842097)": {
    "bns": 0.003171774768353528,
    "bbh": 0,
    "nsbh": 0
  },
  "(1.05479460, 1.00443020, -0.01807027, -0.04738955)": {
    "bns": 0.003171774768353528,
    "bbh": 0,
    "nsbh": 0
  },
  "(1.05392930, 1.00808930, 0.00914677, 0.03306449)": {
    "bns": 0.003171774768353528,
    "bbh": 0,
    "nsbh": 0
  },
  "(1.05011720, 1.00037990, -0.04362304, -0.04635067)": {
    "bns": 0.003171774768353528,
    "bbh": 0,
    "nsbh": 0
  },
  "(1.05915420, 1.00637370, -0.03120669, 0.04843448)": {
    "bns": 0.003171774768353528,
    "bbh": 0,
    "nsbh": 0
  },
  "(1.05758280, 1.00824750, 0.03524546, 0.04542072)": {
    "bns": 0.003171774768353528,
    "bbh": 0,
    "nsbh": 0
  },
  "(1.05869190, 1.00154840, -0.04900360, -0.04234473)": {
    "bns": 0.003171774768353528,
    "bbh": 0,
    "nsbh": 0
  },
  "(1.06616720, 1.00626190, 0.04295889, 0.04257580)": {
    "bns": 0.003171774768353528,
    "bbh": 0,
    "nsbh": 0
  },
  "(1.36047650, 1.28779510, 0.04241282, 0.04953052)": {
    "bns": 0.003171774768353528,
    "bbh": 0,
    "nsbh": 0
  },
  "(1.06702370, 1.00744140, -0.03584446, -0.02068175)": {
    "bns": 0.003171774768353528,
    "bbh": 0,
    "nsbh": 0
  },
  "(1.05440540, 1.00260870, 0.04831136, 0.03248413)": {
    "bns": 0.003171774768353528,
    "bbh": 0,
    "nsbh": 0
  },
  "(2.77510180, 1.00065420, -0.73053496, 0.03215282)": {
    "bns": 0.003171774768353528,
    "bbh": 0,
    "nsbh": 0
  },
  "(1.05892750, 1.00575660, -0.04271769, -0.04225908)": {
    "bns": 0.003171774768353528,
    "bbh": 0,
    "nsbh": 0
  },
  "(1.06652980, 1.00251530, 0.01821823, 0.04176529)": {
    "bns": 0.003171774768353528,
    "bbh": 0,
    "nsbh": 0
  },
  "(1.06998650, 1.00967670, -0.04965551, -0.04866333)": {
    "bns": 0.003171774768353528,
    "bbh": 0,
    "nsbh": 0
  },
  "(1.06310940, 1.00561830, 0.03336422, -0.02737638)": {
    "bns": 0.003171774768353528,
    "bbh": 0,
    "nsbh": 0
  },
  "(1.06555950, 1.00717830, -0.01382343, 0.04969995)": {
    "bns": 0.003171774768353528,
    "bbh": 0,
    "nsbh": 0
  },
  "(1.05621420, 1.00293100, 0.04845499, 0.00857351)": {
    "bns": 0.003171774768353528,
    "bbh": 0,
    "nsbh": 0
  },
  "(1.06594540, 1.00215730, 0.01687449, -0.03948428)": {
    "bns": 0.003171774768353528,
    "bbh": 0,
    "nsbh": 0
  },
  "(1.05569070, 1.00108620, 0.00401405, -0.04925636)": {
    "bns": 0.003171774768353528,
    "bbh": 0,
    "nsbh": 0
  },
  "(1.06008630, 1.00124870, -0.04111650, -0.00904148)": {
    "bns": 0.003171774768353528,
    "bbh": 0,
    "nsbh": 0
  },
  "(1.05905430, 1.00969400, 0.03377900, -0.01649328)": {
    "bns": 0.003171774768353528,
    "bbh": 0,
    "nsbh": 0
  },
  "(2.77701600, 1.00116070, 0.98219828, 0.02353044)": {
    "bns": 0.003171774768353528,
    "bbh": 0,
    "nsbh": 0
  },
  "(1.06477910, 1.00710590, -0.00178055, -0.02875887)": {
    "bns": 0.003171774768353528,
    "bbh": 0,
    "nsbh": 0
  },
  "(2.77992210, 1.00194570, -0.98678843, 0.04947600)": {
    "bns": 0.003171774768353528,
    "bbh": 0,
    "nsbh": 0
  },
  "(1.05470510, 1.00503980, -0.04906387, -0.04990406)": {
    "bns": 0.003171774768353528,
    "bbh": 0,
    "nsbh": 0
  },
  "(1.06297020, 1.00846230, -0.03983434, -0.01969215)": {
    "bns": 0.003171774768353528,
    "bbh": 0,
    "nsbh": 0
  },
  "(1.05187610, 1.00655090, 0.02126064, -0.01194547)": {
    "bns": 0.003171774768353528,
    "bbh": 0,
    "nsbh": 0
  },
  "(1.05300520, 1.00952450, 0.03850724, 0.04331109)": {
    "bns": 0.003171774768353528,
    "bbh": 0,
    "nsbh": 0
  },
  "(1.05337420, 1.00893890, -0.02435945, -0.04218473)": {
    "bns": 0.003171774768353528,
    "bbh": 0,
    "nsbh": 0
  },
  "(1.05059220, 1.00341510, -0.03448821, -0.04788382)": {
    "bns": 0.003171774768353528,
    "bbh": 0,
    "nsbh": 0
  },
  "(1.05245720, 1.00761120, -0.04985464, -0.04959079)": {
    "bns": 0.003171774768353528,
    "bbh": 0,
    "nsbh": 0
  },
  "(1.06788330, 1.00849140, -0.01343729, -0.02743110)": {
    "bns": 0.003171774768353528,
    "bbh": 0,
    "nsbh": 0
  },
  "(1.06992910, 1.00572520, 0.04866924, 0.03801840)": {
    "bns": 0.003171774768353528,
    "bbh": 0,
    "nsbh": 0
  },
  "(1.06650220, 1.00548160, -0.03115959, -0.04451461)": {
    "bns": 0.003171774768353528,
    "bbh": 0,
    "nsbh": 0
  },
  "(1.06600210, 1.00243260, -0.04871041, -0.00011530)": {
    "bns": 0.003171774768353528,
    "bbh": 0,
    "nsbh": 0
  },
  "(1.06149800, 1.00010980, 0.04950476, 0.04376097)": {
    "bns": 0.003171774768353528,
    "bbh": 0,
    "nsbh": 0
  },
  "(1.06849950, 1.00490430, -0.01515140, 0.03775928)": {
    "bns": 0.003171774768353528,
    "bbh": 0,
    "nsbh": 0
  },
  "(2.77570300, 1.00146750, -0.99061957, 0.01929170)": {
    "bns": 0.003171774768353528,
    "bbh": 0,
    "nsbh": 0
  },
  "(1.06630560, 1.00288660, -0.00994083, -0.02789662)": {
    "bns": 0.003171774768353528,
    "bbh": 0,
    "nsbh": 0
  },
  "(1.06962500, 1.00052730, 0.03452091, -0.00253412)": {
    "bns": 0.003171774768353528,
    "bbh": 0,
    "nsbh": 0
  },
  "(1.05639460, 1.00517350, -0.03265186, 0.01841490)": {
    "bns": 0.003171774768353528,
    "bbh": 0,
    "nsbh": 0
  },
  "(1.06230500, 1.00338250, -0.00301943, -0.04526154)": {
    "bns": 0.003171774768353528,
    "bbh": 0,
    "nsbh": 0
  },
  "(2.77497950, 1.00751780, -0.69886385, 0.00346279)": {
    "bns": 0.003171774768353528,
    "bbh": 0,
    "nsbh": 0
  },
  "(1.06567670, 1.00638990, -0.01886703, -0.01541222)": {
    "bns": 0.003171774768353528,
    "bbh": 0,
    "nsbh": 0
  },
  "(2.77669940, 1.00028490, -0.92168209, -0.04206669)": {
    "bns": 0.003171774768353528,
    "bbh": 0,
    "nsbh": 0
  },
  "(1.05503980, 1.00774770, 0.02977107, 0.02494143)": {
    "bns": 0.003171774768353528,
    "bbh": 0,
    "nsbh": 0
  },
  "(1.05019140, 1.00752550, -0.03160302, 0.02784260)": {
    "bns": 0.003171774768353528,
    "bbh": 0,
    "nsbh": 0
  },
  "(1.06843210, 1.00259220, 0.02703106, -0.03595285)": {
    "bns": 0.003171774768353528,
    "bbh": 0,
    "nsbh": 0
  },
  "(1.06009420, 1.00242360, 0.03101798, -0.00183343)": {
    "bns": 0.003171774768353528,
    "bbh": 0,
    "nsbh": 0
  },
  "(1.05457240, 1.00470980, -0.04877792, -0.01886061)": {
    "bns": 0.003171774768353528,
    "bbh": 0,
    "nsbh": 0
  },
  "(1.05488580, 1.00466250, 0.04527781, 0.02169891)": {
    "bns": 0.003171774768353528,
    "bbh": 0,
    "nsbh": 0
  },
  "(1.05395490, 1.00719720, 0.04775780, -0.03855590)": {
    "bns": 0.003171774768353528,
    "bbh": 0,
    "nsbh": 0
  },
  "(1.36294270, 1.28768510, 0.04817642, 0.02649223)": {
    "bns": 0.003171774768353528,
    "bbh": 0,
    "nsbh": 0
  },
  "(1.06551870, 1.00890140, 0.00017593, 0.00368071)": {
    "bns": 0.003171774768353528,
    "bbh": 0,
    "nsbh": 0
  },
  "(2.77684380, 1.00354080, -0.29336871, -0.02320291)": {
    "bns": 0.003171774768353528,
    "bbh": 0,
    "nsbh": 0
  },
  "(1.05154910, 1.00011010, -0.03344666, -0.02436901)": {
    "bns": 0.003171774768353528,
    "bbh": 0,
    "nsbh": 0
  },
  "(1.06422010, 1.00764430, -0.00450729, 0.02265676)": {
    "bns": 0.003171774768353528,
    "bbh": 0,
    "nsbh": 0
  },
  "(1.06030830, 1.00003080, 0.00349267, -0.04090646)": {
    "bns": 0.003171774768353528,
    "bbh": 0,
    "nsbh": 0
  },
  "(1.06204430, 1.00265720, -0.02404046, -0.03811535)": {
    "bns": 0.003171774768353528,
    "bbh": 0,
    "nsbh": 0
  },
  "(1.05862200, 1.00530400, -0.03631122, -0.03877543)": {
    "bns": 0.003171774768353528,
    "bbh": 0,
    "nsbh": 0
  },
  "(1.06240260, 1.00508340, 0.03791806, 0.04756833)": {
    "bns": 0.003171774768353528,
    "bbh": 0,
    "nsbh": 0
  },
  "(1.05343410, 1.00657770, 0.04311080, 0.04944556)": {
    "bns": 0.003171774768353528,
    "bbh": 0,
    "nsbh": 0
  },
  "(2.77620370, 1.00369250, -0.52352741, 0.01810967)": {
    "bns": 0.003171774768353528,
    "bbh": 0,
    "nsbh": 0
  },
  "(1.05252800, 1.00664200, -0.03218583, -0.04630816)": {
    "bns": 0.003171774768353528,
    "bbh": 0,
    "nsbh": 0
  },
  "(1.06588740, 1.00087480, -0.02547716, -0.01145100)": {
    "bns": 0.003171774768353528,
    "bbh": 0,
    "nsbh": 0
  },
  "(1.05567940, 1.00862100, -0.04049364, 0.04832862)": {
    "bns": 0.003171774768353528,
    "bbh": 0,
    "nsbh": 0
  },
  "(1.05052970, 1.00228530, -0.03791974, -0.04582573)": {
    "bns": 0.003171774768353528,
    "bbh": 0,
    "nsbh": 0
  },
  "(2.77938100, 1.00615560, -0.96158710, -0.02444122)": {
    "bns": 0.003171774768353528,
    "bbh": 0,
    "nsbh": 0
  },
  "(1.05278740, 1.00340340, -0.00896742, -0.00936267)": {
    "bns": 0.003171774768353528,
    "bbh": 0,
    "nsbh": 0
  },
  "(1.05017170, 1.00505350, 0.04644728, 0.03360398)": {
    "bns": 0.003171774768353528,
    "bbh": 0,
    "nsbh": 0
  },
  "(1.06786020, 1.00572710, -0.02782674, 0.02789397)": {
    "bns": 0.003171774768353528,
    "bbh": 0,
    "nsbh": 0
  },
  "(1.05671150, 1.00820590, 0.04586099, 0.04665775)": {
    "bns": 0.003171774768353528,
    "bbh": 0,
    "nsbh": 0
  },
  "(1.06969680, 1.00467560, 0.02173564, -0.03107798)": {
    "bns": 0.003171774768353528,
    "bbh": 0,
    "nsbh": 0
  },
  "(1.05780860, 1.00334080, -0.04811749, -0.02741355)": {
    "bns": 0.003171774768353528,
    "bbh": 0,
    "nsbh": 0
  },
  "(2.77877280, 1.00132650, -0.99888843, -0.04258834)": {
    "bns": 0.003171774768353528,
    "bbh": 0,
    "nsbh": 0
  },
  "(1.05353870, 1.00276740, -0.04825962, -0.03838909)": {
    "bns": 0.003171774768353528,
    "bbh": 0,
    "nsbh": 0
  },
  "(1.06139960, 1.00579080, 0.04256453, 0.01429393)": {
    "bns": 0.003171774768353528,
    "bbh": 0,
    "nsbh": 0
  },
  "(1.06179390, 1.00060420, -0.04760079, -0.03843850)": {
    "bns": 0.003171774768353528,
    "bbh": 0,
    "nsbh": 0
  },
  "(1.05788280, 1.00299380, 0.00796124, 0.03240775)": {
    "bns": 0.003171774768353528,
    "bbh": 0,
    "nsbh": 0
  },
  "(1.05690150, 1.00360550, -0.02477586, 0.03382137)": {
    "bns": 0.003171774768353528,
    "bbh": 0,
    "nsbh": 0
  },
  "(2.77627450, 1.00795040, -0.56377360, 0.03829177)": {
    "bns": 0.003171774768353528,
    "bbh": 0,
    "nsbh": 0
  },
  "(2.77840420, 1.00675780, -0.66374215, -0.02234405)": {
    "bns": 0.003171774768353528,
    "bbh": 0,
    "nsbh": 0
  },
  "(1.05559700, 1.00604930, 0.02161759, 0.03258906)": {
    "bns": 0.003171774768353528,
    "bbh": 0,
    "nsbh": 0
  },
  "(1.05260980, 1.00691930, -0.04453486, -0.03325225)": {
    "bns": 0.003171774768353528,
    "bbh": 0,
    "nsbh": 0
  },
  "(1.06356000, 1.00366490, 0.04355020, -0.02114189)": {
    "bns": 0.003171774768353528,
    "bbh": 0,
    "nsbh": 0
  },
  "(2.77944450, 1.00325450, 0.12100272, -0.04906671)": {
    "bns": 0.003171774768353528,
    "bbh": 0,
    "nsbh": 0
  },
  "(1.05695020, 1.00968200, -0.03793248, 0.03440983)": {
    "bns": 0.003171774768353528,
    "bbh": 0,
    "nsbh": 0
  },
  "(1.35912730, 1.28928390, -0.02852173, -0.00206074)": {
    "bns": 0.003171774768353528,
    "bbh": 0,
    "nsbh": 0
  },
  "(2.77845910, 1.00595980, 0.98627325, 0.01699983)": {
    "bns": 0.003171774768353528,
    "bbh": 0,
    "nsbh": 0
  },
  "(1.05661330, 1.00543320, -0.03186929, -0.04575585)": {
    "bns": 0.003171774768353528,
    "bbh": 0,
    "nsbh": 0
  },
  "(1.06187730, 1.00497420, 0.01078525, 0.04406777)": {
    "bns": 0.003171774768353528,
    "bbh": 0,
    "nsbh": 0
  },
  "(1.06654060, 1.00148670, -0.04761569, -0.04912458)": {
    "bns": 0.003171774768353528,
    "bbh": 0,
    "nsbh": 0
  },
  "(1.06749520, 1.00523700, -0.04873699, -0.00152751)": {
    "bns": 0.003171774768353528,
    "bbh": 0,
    "nsbh": 0
  },
  "(1.06583550, 1.00730850, -0.04772223, -0.04996522)": {
    "bns": 0.003171774768353528,
    "bbh": 0,
    "nsbh": 0
  },
  "(1.06314530, 1.00146820, -0.02788089, 0.03406600)": {
    "bns": 0.003171774768353528,
    "bbh": 0,
    "nsbh": 0
  },
  "(1.05642580, 1.00299250, 0.04507335, 0.04462093)": {
    "bns": 0.003171774768353528,
    "bbh": 0,
    "nsbh": 0
  },
  "(1.05927460, 1.00451260, -0.04895334, -0.04898918)": {
    "bns": 0.003171774768353528,
    "bbh": 0,
    "nsbh": 0
  },
  "(1.06941460, 1.00910000, -0.04183725, -0.04826599)": {
    "bns": 0.003171774768353528,
    "bbh": 0,
    "nsbh": 0
  },
  "(1.06808760, 1.00700870, 0.04955359, 0.04501570)": {
    "bns": 0.003171774768353528,
    "bbh": 0,
    "nsbh": 0
  },
  "(1.06482370, 1.00073520, 0.00480145, -0.02195493)": {
    "bns": 0.003171774768353528,
    "bbh": 0,
    "nsbh": 0
  },
  "(1.06355910, 1.00225980, -0.01894922, 0.01634856)": {
    "bns": 0.003171774768353528,
    "bbh": 0,
    "nsbh": 0
  },
  "(2.77011440, 1.00504490, 0.20401251, -0.01607751)": {
    "bns": 0.003171774768353528,
    "bbh": 0,
    "nsbh": 0
  },
  "(1.05649750, 1.00478650, 0.03698469, 0.00432212)": {
    "bns": 0.003171774768353528,
    "bbh": 0,
    "nsbh": 0
  },
  "(1.05522400, 1.00645070, -0.01830652, -0.03843630)": {
    "bns": 0.003171774768353528,
    "bbh": 0,
    "nsbh": 0
  },
  "(2.77518830, 1.00477370, 0.74380957, -0.00528177)": {
    "bns": 0.003171774768353528,
    "bbh": 0,
    "nsbh": 0
  },
  "(2.77822160, 1.00157530, 0.40330937, 0.02654575)": {
    "bns": 0.003171774768353528,
    "bbh": 0,
    "nsbh": 0
  },
  "(1.05422470, 1.00920720, -0.02985766, -0.02965215)": {
    "bns": 0.003171774768353528,
    "bbh": 0,
    "nsbh": 0
  },
  "(1.06192160, 1.00916760, 0.04064433, 0.03774931)": {
    "bns": 0.003171774768353528,
    "bbh": 0,
    "nsbh": 0
  },
  "(1.06330740, 1.00334110, -0.04208458, -0.01570495)": {
    "bns": 0.003171774768353528,
    "bbh": 0,
    "nsbh": 0
  },
  "(1.05685370, 1.00008180, -0.00230211, 0.04154624)": {
    "bns": 0.003171774768353528,
    "bbh": 0,
    "nsbh": 0
  },
  "(1.06346730, 1.00008730, -0.00942005, 0.01758120)": {
    "bns": 0.003171774768353528,
    "bbh": 0,
    "nsbh": 0
  },
  "(1.06384770, 1.00579480, -0.02839043, 0.03213845)": {
    "bns": 0.003171774768353528,
    "bbh": 0,
    "nsbh": 0
  },
  "(1.06856890, 1.00925070, -0.04990649, -0.04519243)": {
    "bns": 0.003171774768353528,
    "bbh": 0,
    "nsbh": 0
  },
  "(1.05084380, 1.00155860, -0.02814801, -0.03154386)": {
    "bns": 0.003171774768353528,
    "bbh": 0,
    "nsbh": 0
  },
  "(1.05686210, 1.00443530, 0.03632842, -0.01540544)": {
    "bns": 0.003171774768353528,
    "bbh": 0,
    "nsbh": 0
  },
  "(1.05074260, 1.00486830, -0.04976116, -0.04937905)": {
    "bns": 0.003171774768353528,
    "bbh": 0,
    "nsbh": 0
  },
  "(1.05082770, 1.00139390, -0.01513215, 0.02918773)": {
    "bns": 0.003171774768353528,
    "bbh": 0,
    "nsbh": 0
  },
  "(2.77522230, 1.00004340, -0.99637607, -0.03753404)": {
    "bns": 0.003171774768353528,
    "bbh": 0,
    "nsbh": 0
  },
  "(2.77266870, 1.00364880, 0.11816027, -0.00156080)": {
    "bns": 0.003171774768353528,
    "bbh": 0,
    "nsbh": 0
  },
  "(2.77072460, 1.00213680, -0.31086439, -0.04234880)": {
    "bns": 0.003171774768353528,
    "bbh": 0,
    "nsbh": 0
  },
  "(1.06987910, 1.00134270, -0.00140889, 0.04584696)": {
    "bns": 0.003171774768353528,
    "bbh": 0,
    "nsbh": 0
  },
  "(1.06894810, 1.00413670, 0.04784172, -0.01854397)": {
    "bns": 0.003171774768353528,
    "bbh": 0,
    "nsbh": 0
  },
  "(2.77664170, 1.00582460, 0.94674124, -0.03245562)": {
    "bns": 0.003171774768353528,
    "bbh": 0,
    "nsbh": 0
  },
  "(2.77963450, 1.00847320, -0.92443911, -0.04072435)": {
    "bns": 0.003171774768353528,
    "bbh": 0,
    "nsbh": 0
  },
  "(1.06307760, 1.00361370, 0.02992638, 0.03548073)": {
    "bns": 0.003171774768353528,
    "bbh": 0,
    "nsbh": 0
  },
  "(1.06113060, 1.00026060, 0.01318426, 0.03820856)": {
    "bns": 0.003171774768353528,
    "bbh": 0,
    "nsbh": 0
  },
  "(1.05763010, 1.00948950, -0.03382064, -0.03849033)": {
    "bns": 0.003171774768353528,
    "bbh": 0,
    "nsbh": 0
  },
  "(1.06415390, 1.00691510, -0.03613137, -0.02280820)": {
    "bns": 0.003171774768353528,
    "bbh": 0,
    "nsbh": 0
  },
  "(1.05611940, 1.00041420, -0.03546686, -0.03666953)": {
    "bns": 0.003171774768353528,
    "bbh": 0,
    "nsbh": 0
  },
  "(1.06639760, 1.00953430, -0.02704152, -0.03069345)": {
    "bns": 0.003171774768353528,
    "bbh": 0,
    "nsbh": 0
  },
  "(1.05606670, 1.00176940, 0.03250186, 0.01999039)": {
    "bns": 0.003171774768353528,
    "bbh": 0,
    "nsbh": 0
  },
  "(1.06666760, 1.00729570, -0.04714243, -0.04900397)": {
    "bns": 0.003171774768353528,
    "bbh": 0,
    "nsbh": 0
  },
  "(1.06920230, 1.00472190, -0.04414038, -0.01994440)": {
    "bns": 0.003171774768353528,
    "bbh": 0,
    "nsbh": 0
  },
  "(1.06912680, 1.00625840, -0.01680135, 0.02528757)": {
    "bns": 0.003171774768353528,
    "bbh": 0,
    "nsbh": 0
  },
  "(1.06090130, 1.00152280, 0.02933813, 0.04509989)": {
    "bns": 0.003171774768353528,
    "bbh": 0,
    "nsbh": 0
  },
  "(1.05358940, 1.00122720, -0.02583311, 0.04077372)": {
    "bns": 0.003171774768353528,
    "bbh": 0,
    "nsbh": 0
  },
  "(1.05106030, 1.00324380, -0.04518783, -0.04880666)": {
    "bns": 0.003171774768353528,
    "bbh": 0,
    "nsbh": 0
  },
  "(1.05470830, 1.00208420, -0.01711662, 0.02483505)": {
    "bns": 0.003171774768353528,
    "bbh": 0,
    "nsbh": 0
  },
  "(1.05787800, 1.00664920, 0.02360783, 0.03296536)": {
    "bns": 0.003171774768353528,
    "bbh": 0,
    "nsbh": 0
  },
  "(2.77364290, 1.00013630, -0.31043858, -0.01616171)": {
    "bns": 0.003171774768353528,
    "bbh": 0,
    "nsbh": 0
  },
  "(1.06233850, 1.00852520, 0.03636566, -0.04145603)": {
    "bns": 0.003171774768353528,
    "bbh": 0,
    "nsbh": 0
  },
  "(1.06560830, 1.00287830, -0.02090859, -0.00504141)": {
    "bns": 0.003171774768353528,
    "bbh": 0,
    "nsbh": 0
  },
  "(1.06715110, 1.00263340, 0.03897870, 0.04797604)": {
    "bns": 0.003171774768353528,
    "bbh": 0,
    "nsbh": 0
  },
  "(1.06585910, 1.00594040, -0.02404652, 0.04724168)": {
    "bns": 0.003171774768353528,
    "bbh": 0,
    "nsbh": 0
  },
  "(1.05975910, 1.00539680, 0.04638050, -0.03331500)": {
    "bns": 0.003171774768353528,
    "bbh": 0,
    "nsbh": 0
  },
  "(2.77392480, 1.00185500, 0.91773818, 0.01444975)": {
    "bns": 0.003171774768353528,
    "bbh": 0,
    "nsbh": 0
  },
  "(1.06551060, 1.00800660, 0.01975868, 0.04700157)": {
    "bns": 0.003171774768353528,
    "bbh": 0,
    "nsbh": 0
  },
  "(1.06410640, 1.00229050, -0.04923142, 0.00608297)": {
    "bns": 0.003171774768353528,
    "bbh": 0,
    "nsbh": 0
  },
  "(1.06058330, 1.00050320, -0.03145678, 0.04932850)": {
    "bns": 0.003171774768353528,
    "bbh": 0,
    "nsbh": 0
  },
  "(1.06189680, 1.00423540, -0.03162668, 0.01441560)": {
    "bns": 0.003171774768353528,
    "bbh": 0,
    "nsbh": 0
  },
  "(1.06075550, 1.00264860, 0.01995576, -0.04134838)": {
    "bns": 0.003171774768353528,
    "bbh": 0,
    "nsbh": 0
  },
  "(1.06234880, 1.00112730, 0.02836377, 0.01969658)": {
    "bns": 0.003171774768353528,
    "bbh": 0,
    "nsbh": 0
  },
  "(1.06139710, 1.00823760, 0.04983562, 0.04494771)": {
    "bns": 0.003171774768353528,
    "bbh": 0,
    "nsbh": 0
  },
  "(2.77366850, 1.00378340, 0.10324011, -0.02655513)": {
    "bns": 0.003171774768353528,
    "bbh": 0,
    "nsbh": 0
  },
  "(1.06693050, 1.00248460, 0.04447003, -0.04686773)": {
    "bns": 0.003171774768353528,
    "bbh": 0,
    "nsbh": 0
  },
  "(1.06391350, 1.00379220, -0.04972008, -0.04843222)": {
    "bns": 0.003171774768353528,
    "bbh": 0,
    "nsbh": 0
  },
  "(1.36347360, 1.27936770, 0.04958527, 0.04869630)": {
    "bns": 0.003171774768353528,
    "bbh": 0,
    "nsbh": 0
  },
  "(1.06955830, 1.00667460, -0.03558907, 0.00696887)": {
    "bns": 0.003171774768353528,
    "bbh": 0,
    "nsbh": 0
  },
  "(2.77508730, 1.00927980, 0.24636737, -0.02894168)": {
    "bns": 0.003171774768353528,
    "bbh": 0,
    "nsbh": 0
  },
  "(1.05962970, 1.00867500, -0.03634072, -0.04379540)": {
    "bns": 0.003171774768353528,
    "bbh": 0,
    "nsbh": 0
  },
  "(1.06005370, 1.00027340, -0.03729708, -0.01995960)": {
    "bns": 0.003171774768353528,
    "bbh": 0,
    "nsbh": 0
  },
  "(1.05758160, 1.00180240, -0.04761744, -0.04519683)": {
    "bns": 0.003171774768353528,
    "bbh": 0,
    "nsbh": 0
  },
  "(1.36550980, 1.28448200, 0.04901095, 0.04439002)": {
    "bns": 0.003171774768353528,
    "bbh": 0,
    "nsbh": 0
  },
  "(1.05444600, 1.00789980, 0.02456607, -0.03923295)": {
    "bns": 0.003171774768353528,
    "bbh": 0,
    "nsbh": 0
  },
  "(1.05461800, 1.00618760, -0.00959674, 0.01960014)": {
    "bns": 0.003171774768353528,
    "bbh": 0,
    "nsbh": 0
  },
  "(1.05490630, 1.00159770, 0.04684823, 0.04289975)": {
    "bns": 0.003171774768353528,
    "bbh": 0,
    "nsbh": 0
  },
  "(1.06959850, 1.00796670, -0.04667487, -0.04509818)": {
    "bns": 0.003171774768353528,
    "bbh": 0,
    "nsbh": 0
  },
  "(1.05486750, 1.00525920, 0.03954946, 0.00510040)": {
    "bns": 0.003171774768353528,
    "bbh": 0,
    "nsbh": 0
  },
  "(1.06665750, 1.00638500, -0.04615016, -0.04174193)": {
    "bns": 0.003171774768353528,
    "bbh": 0,
    "nsbh": 0
  },
  "(1.05696780, 1.00403700, 0.04694154, 0.04384808)": {
    "bns": 0.003171774768353528,
    "bbh": 0,
    "nsbh": 0
  },
  "(1.05134670, 1.00609330, 0.04942999, 0.04992228)": {
    "bns": 0.003171774768353528,
    "bbh": 0,
    "nsbh": 0
  },
  "(2.77902900, 1.00006380, -0.62801160, -0.00953912)": {
    "bns": 0.003171774768353528,
    "bbh": 0,
    "nsbh": 0
  },
  "(1.06458860, 1.00078310, 0.04768384, 0.02802081)": {
    "bns": 0.003171774768353528,
    "bbh": 0,
    "nsbh": 0
  },
  "(1.06079440, 1.00117050, 0.04673121, 0.04798058)": {
    "bns": 0.003171774768353528,
    "bbh": 0,
    "nsbh": 0
  },
  "(1.06496920, 1.00757820, 0.01576349, -0.02511150)": {
    "bns": 0.003171774768353528,
    "bbh": 0,
    "nsbh": 0
  },
  "(1.05615690, 1.00721240, 0.01394740, 0.02894796)": {
    "bns": 0.003171774768353528,
    "bbh": 0,
    "nsbh": 0
  },
  "(1.06601520, 1.00489710, 0.00776191, 0.02367248)": {
    "bns": 0.003171774768353528,
    "bbh": 0,
    "nsbh": 0
  },
  "(1.05014400, 1.00327100, 0.03750434, -0.03355210)": {
    "bns": 0.003171774768353528,
    "bbh": 0,
    "nsbh": 0
  },
  "(1.06102060, 1.00178260, 0.01200106, -0.03893523)": {
    "bns": 0.003171774768353528,
    "bbh": 0,
    "nsbh": 0
  },
  "(1.05180110, 1.00146930, -0.04217736, -0.04627144)": {
    "bns": 0.003171774768353528,
    "bbh": 0,
    "nsbh": 0
  },
  "(1.05195880, 1.00910790, -0.04308396, -0.04019012)": {
    "bns": 0.003171774768353528,
    "bbh": 0,
    "nsbh": 0
  },
  "(1.05110590, 1.00540320, -0.04853165, -0.04993379)": {
    "bns": 0.003171774768353528,
    "bbh": 0,
    "nsbh": 0
  },
  "(1.35162040, 1.27045070, 0.02259975, 0.02374755)": {
    "bns": 0.003171774768353528,
    "bbh": 0,
    "nsbh": 0
  },
  "(1.05471080, 1.00406970, -0.04665484, -0.02504668)": {
    "bns": 0.003171774768353528,
    "bbh": 0,
    "nsbh": 0
  },
  "(1.06704410, 1.00518490, -0.04591112, -0.04610034)": {
    "bns": 0.003171774768353528,
    "bbh": 0,
    "nsbh": 0
  },
  "(1.05202720, 1.00689900, -0.01595689, -0.01901094)": {
    "bns": 0.003171774768353528,
    "bbh": 0,
    "nsbh": 0
  },
  "(1.05508090, 1.00232020, -0.02672320, -0.01601819)": {
    "bns": 0.003171774768353528,
    "bbh": 0,
    "nsbh": 0
  },
  "(1.35223360, 1.27232940, 0.04534718, 0.03765858)": {
    "bns": 0.003171774768353528,
    "bbh": 0,
    "nsbh": 0
  },
  "(1.35077800, 1.28331170, 0.04965604, 0.04986778)": {
    "bns": 0.003171774768353528,
    "bbh": 0,
    "nsbh": 0
  },
  "(1.06458270, 1.00645290, 0.04701125, 0.04950714)": {
    "bns": 0.003171774768353528,
    "bbh": 0,
    "nsbh": 0
  },
  "(1.36211080, 1.28022520, 0.04707709, 0.04338203)": {
    "bns": 0.003171774768353528,
    "bbh": 0,
    "nsbh": 0
  },
  "(1.06128790, 1.00820130, -0.04909445, -0.03418757)": {
    "bns": 0.003171774768353528,
    "bbh": 0,
    "nsbh": 0
  },
  "(2.77327000, 1.00029580, 0.98981238, 0.02634206)": {
    "bns": 0.003171774768353528,
    "bbh": 0,
    "nsbh": 0
  },
  "(1.05303390, 1.00797980, 0.03377565, 0.04362726)": {
    "bns": 0.003171774768353528,
    "bbh": 0,
    "nsbh": 0
  },
  "(2.77983120, 1.00019530, -0.33511964, 0.04860932)": {
    "bns": 0.003171774768353528,
    "bbh": 0,
    "nsbh": 0
  },
  "(1.05080010, 1.00976500, 0.04526907, 0.04729350)": {
    "bns": 0.003171774768353528,
    "bbh": 0,
    "nsbh": 0
  },
  "(2.77638440, 1.00888920, 0.93347358, -0.01354779)": {
    "bns": 0.003171774768353528,
    "bbh": 0,
    "nsbh": 0
  },
  "(1.05136890, 1.00286090, 0.02551026, 0.04966936)": {
    "bns": 0.003171774768353528,
    "bbh": 0,
    "nsbh": 0
  },
  "(2.77463160, 1.00070370, -0.80356082, -0.03098513)": {
    "bns": 0.003171774768353528,
    "bbh": 0,
    "nsbh": 0
  },
  "(1.05492990, 1.00366250, 0.00309821, -0.04163821)": {
    "bns": 0.003171774768353528,
    "bbh": 0,
    "nsbh": 0
  },
  "(1.05240130, 1.00729670, 0.02396114, 0.02882754)": {
    "bns": 0.003171774768353528,
    "bbh": 0,
    "nsbh": 0
  },
  "(1.06266650, 1.00765260, -0.00155648, -0.00170082)": {
    "bns": 0.003171774768353528,
    "bbh": 0,
    "nsbh": 0
  },
  "(1.06239230, 1.00137130, -0.02939707, -0.02139563)": {
    "bns": 0.003171774768353528,
    "bbh": 0,
    "nsbh": 0
  },
  "(1.06297260, 1.00124340, -0.00025521, -0.02997589)": {
    "bns": 0.003171774768353528,
    "bbh": 0,
    "nsbh": 0
  },
  "(2.77424900, 1.00061780, 0.99294554, 0.04776715)": {
    "bns": 0.003171774768353528,
    "bbh": 0,
    "nsbh": 0
  },
  "(1.06723840, 1.00201040, -0.04353170, -0.01796332)": {
    "bns": 0.003171774768353528,
    "bbh": 0,
    "nsbh": 0
  },
  "(1.05930940, 1.00147030, -0.04101794, 0.01434415)": {
    "bns": 0.003171774768353528,
    "bbh": 0,
    "nsbh": 0
  },
  "(1.06402620, 1.00313550, 0.04989330, 0.04988601)": {
    "bns": 0.003171774768353528,
    "bbh": 0,
    "nsbh": 0
  },
  "(1.05182550, 1.00113620, 0.04967738, 0.04978963)": {
    "bns": 0.003171774768353528,
    "bbh": 0,
    "nsbh": 0
  },
  "(1.06352050, 1.00524950, 0.02859091, -0.00641317)": {
    "bns": 0.003171774768353528,
    "bbh": 0,
    "nsbh": 0
  },
  "(1.05633770, 1.00390640, 0.03330384, -0.00313621)": {
    "bns": 0.003171774768353528,
    "bbh": 0,
    "nsbh": 0
  },
  "(1.06706950, 1.00527620, -0.04942298, -0.04947765)": {
    "bns": 0.003171774768353528,
    "bbh": 0,
    "nsbh": 0
  },
  "(2.77464580, 1.00386470, 0.75981700, 0.03975749)": {
    "bns": 0.003171774768353528,
    "bbh": 0,
    "nsbh": 0
  },
  "(1.05356020, 1.00764140, 0.03555313, 0.04399712)": {
    "bns": 0.003171774768353528,
    "bbh": 0,
    "nsbh": 0
  },
  "(1.06639940, 1.00850650, -0.04419093, -0.03192899)": {
    "bns": 0.003171774768353528,
    "bbh": 0,
    "nsbh": 0
  },
  "(2.77669600, 1.00737570, 0.98985576, 0.04280987)": {
    "bns": 0.003171774768353528,
    "bbh": 0,
    "nsbh": 0
  },
  "(1.06760210, 1.00911780, -0.04676260, -0.04741947)": {
    "bns": 0.003171774768353528,
    "bbh": 0,
    "nsbh": 0
  },
  "(2.77563320, 1.00357330, 0.99004427, 0.04573901)": {
    "bns": 0.003171774768353528,
    "bbh": 0,
    "nsbh": 0
  },
  "(1.06639730, 1.00028390, 0.04807242, 0.04060863)": {
    "bns": 0.003171774768353528,
    "bbh": 0,
    "nsbh": 0
  },
  "(1.05600200, 1.00939800, 0.04759153, 0.04966405)": {
    "bns": 0.003171774768353528,
    "bbh": 0,
    "nsbh": 0
  },
  "(1.05201440, 1.00833920, -0.03808231, -0.04754076)": {
    "bns": 0.003171774768353528,
    "bbh": 0,
    "nsbh": 0
  },
  "(1.06074670, 1.00783540, 0.04172537, 0.02755508)": {
    "bns": 0.003171774768353528,
    "bbh": 0,
    "nsbh": 0
  },
  "(1.05113780, 1.00619200, 0.04620357, 0.02859628)": {
    "bns": 0.003171774768353528,
    "bbh": 0,
    "nsbh": 0
  },
  "(1.05261630, 1.00798680, -0.04567853, -0.03482518)": {
    "bns": 0.003171774768353528,
    "bbh": 0,
    "nsbh": 0
  },
  "(2.77669790, 1.00596680, -0.22282110, 0.01142427)": {
    "bns": 0.003171774768353528,
    "bbh": 0,
    "nsbh": 0
  },
  "(1.05362280, 1.00264760, 0.00072762, 0.04318055)": {
    "bns": 0.003171774768353528,
    "bbh": 0,
    "nsbh": 0
  },
  "(1.05901440, 1.00952270, -0.03275924, 0.02978822)": {
    "bns": 0.003171774768353528,
    "bbh": 0,
    "nsbh": 0
  },
  "(1.06638490, 1.00215090, 0.04502983, 0.00505588)": {
    "bns": 0.003171774768353528,
    "bbh": 0,
    "nsbh": 0
  },
  "(1.06556230, 1.00945840, -0.04700269, -0.04825407)": {
    "bns": 0.003171774768353528,
    "bbh": 0,
    "nsbh": 0
  },
  "(1.06075060, 1.00467380, -0.04921167, -0.02415471)": {
    "bns": 0.003171774768353528,
    "bbh": 0,
    "nsbh": 0
  },
  "(1.06163390, 1.00283510, -0.01027645, -0.04912559)": {
    "bns": 0.003171774768353528,
    "bbh": 0,
    "nsbh": 0
  },
  "(1.05271290, 1.00110470, -0.04590659, -0.04807537)": {
    "bns": 0.003171774768353528,
    "bbh": 0,
    "nsbh": 0
  },
  "(1.05043310, 1.00103160, -0.03953423, -0.03959069)": {
    "bns": 0.003171774768353528,
    "bbh": 0,
    "nsbh": 0
  },
  "(1.06023980, 1.00236410, -0.03436444, -0.04840702)": {
    "bns": 0.003171774768353528,
    "bbh": 0,
    "nsbh": 0
  },
  "(1.05839450, 1.00605530, -0.03072834, -0.00252787)": {
    "bns": 0.003171774768353528,
    "bbh": 0,
    "nsbh": 0
  },
  "(1.06344820, 1.00356390, -0.04718692, 0.03464718)": {
    "bns": 0.003171774768353528,
    "bbh": 0,
    "nsbh": 0
  },
  "(1.06632080, 1.00826260, -0.01619872, -0.01274867)": {
    "bns": 0.003171774768353528,
    "bbh": 0,
    "nsbh": 0
  },
  "(1.06836930, 1.00205650, -0.01379620, -0.01711923)": {
    "bns": 0.003171774768353528,
    "bbh": 0,
    "nsbh": 0
  },
  "(1.06157760, 1.00298310, -0.04416572, 0.02697525)": {
    "bns": 0.003171774768353528,
    "bbh": 0,
    "nsbh": 0
  },
  "(1.05708080, 1.00988150, 0.00908400, 0.03767975)": {
    "bns": 0.003171774768353528,
    "bbh": 0,
    "nsbh": 0
  },
  "(1.05775330, 1.00564310, -0.04754772, -0.01733690)": {
    "bns": 0.003171774768353528,
    "bbh": 0,
    "nsbh": 0
  },
  "(1.05620530, 1.00193660, 0.00768137, 0.03023775)": {
    "bns": 0.003171774768353528,
    "bbh": 0,
    "nsbh": 0
  },
  "(1.05970820, 1.00558350, -0.02330546, 0.02965382)": {
    "bns": 0.003171774768353528,
    "bbh": 0,
    "nsbh": 0
  },
  "(1.05956020, 1.00344550, 0.00356857, 0.04010533)": {
    "bns": 0.003171774768353528,
    "bbh": 0,
    "nsbh": 0
  },
  "(1.06728020, 1.00389360, -0.04820488, -0.04737794)": {
    "bns": 0.003171774768353528,
    "bbh": 0,
    "nsbh": 0
  },
  "(2.77330260, 1.00263250, -0.99639991, -0.04620795)": {
    "bns": 0.003171774768353528,
    "bbh": 0,
    "nsbh": 0
  },
  "(1.35601330, 1.27486200, 0.01846461, -0.03328167)": {
    "bns": 0.003171774768353528,
    "bbh": 0,
    "nsbh": 0
  },
  "(1.05665550, 1.00326210, -0.00246547, 0.04442336)": {
    "bns": 0.003171774768353528,
    "bbh": 0,
    "nsbh": 0
  },
  "(1.05640970, 1.00780690, 0.02786772, 0.03549423)": {
    "bns": 0.003171774768353528,
    "bbh": 0,
    "nsbh": 0
  },
  "(2.77076350, 1.00407660, -0.97294182, 0.02507411)": {
    "bns": 0.003171774768353528,
    "bbh": 0,
    "nsbh": 0
  },
  "(2.77192160, 1.00277250, -0.58070698, -0.04062949)": {
    "bns": 0.003171774768353528,
    "bbh": 0,
    "nsbh": 0
  },
  "(1.05911830, 1.00367740, -0.04580992, 0.00192527)": {
    "bns": 0.003171774768353528,
    "bbh": 0,
    "nsbh": 0
  },
  "(1.06743080, 1.00048830, 0.04253817, -0.02162192)": {
    "bns": 0.003171774768353528,
    "bbh": 0,
    "nsbh": 0
  },
  "(1.06263800, 1.00299830, 0.02984559, 0.04676999)": {
    "bns": 0.003171774768353528,
    "bbh": 0,
    "nsbh": 0
  },
  "(1.05193880, 1.00193870, 0.03790993, 0.02835576)": {
    "bns": 0.003171774768353528,
    "bbh": 0,
    "nsbh": 0
  },
  "(1.06423710, 1.00157630, 0.00630760, 0.04699698)": {
    "bns": 0.003171774768353528,
    "bbh": 0,
    "nsbh": 0
  },
  "(1.05271090, 1.00783140, 0.03316716, 0.02959268)": {
    "bns": 0.003171774768353528,
    "bbh": 0,
    "nsbh": 0
  },
  "(1.05277800, 1.00281580, -0.04870940, -0.04220916)": {
    "bns": 0.003171774768353528,
    "bbh": 0,
    "nsbh": 0
  },
  "(2.77360540, 1.00405220, -0.84544742, 0.00960936)": {
    "bns": 0.003171774768353528,
    "bbh": 0,
    "nsbh": 0
  },
  "(1.06501550, 1.00481250, -0.03968305, -0.04976773)": {
    "bns": 0.003171774768353528,
    "bbh": 0,
    "nsbh": 0
  },
  "(1.05277440, 1.00124680, -0.02439345, -0.03059944)": {
    "bns": 0.003171774768353528,
    "bbh": 0,
    "nsbh": 0
  },
  "(1.06607020, 1.00885870, 0.04205814, 0.03071209)": {
    "bns": 0.003171774768353528,
    "bbh": 0,
    "nsbh": 0
  },
  "(1.06820360, 1.00062090, 0.01504821, 0.00181757)": {
    "bns": 0.003171774768353528,
    "bbh": 0,
    "nsbh": 0
  },
  "(2.77363110, 1.00172480, 0.99736463, 0.04209995)": {
    "bns": 0.003171774768353528,
    "bbh": 0,
    "nsbh": 0
  },
  "(1.05952920, 1.00222520, -0.04329372, 0.00127254)": {
    "bns": 0.003171774768353528,
    "bbh": 0,
    "nsbh": 0
  },
  "(1.05416130, 1.00332570, 0.03801198, -0.03202029)": {
    "bns": 0.003171774768353528,
    "bbh": 0,
    "nsbh": 0
  },
  "(1.05321390, 1.00082120, 0.01666823, 0.02529466)": {
    "bns": 0.003171774768353528,
    "bbh": 0,
    "nsbh": 0
  },
  "(1.05589180, 1.00658620, 0.04563428, 0.04814872)": {
    "bns": 0.003171774768353528,
    "bbh": 0,
    "nsbh": 0
  },
  "(1.05866360, 1.00856550, -0.00391213, 0.04296236)": {
    "bns": 0.003171774768353528,
    "bbh": 0,
    "nsbh": 0
  },
  "(2.77032290, 1.00035950, -0.61427578, -0.04107157)": {
    "bns": 0.003171774768353528,
    "bbh": 0,
    "nsbh": 0
  },
  "(1.06207810, 1.00811300, 0.01561443, 0.01260951)": {
    "bns": 0.003171774768353528,
    "bbh": 0,
    "nsbh": 0
  },
  "(1.06763370, 1.00990350, 0.04420687, 0.04946682)": {
    "bns": 0.003171774768353528,
    "bbh": 0,
    "nsbh": 0
  },
  "(1.06298550, 1.00752880, 0.02190642, -0.03161156)": {
    "bns": 0.003171774768353528,
    "bbh": 0,
    "nsbh": 0
  },
  "(1.05673030, 1.00086160, 0.04608540, 0.01267006)": {
    "bns": 0.003171774768353528,
    "bbh": 0,
    "nsbh": 0
  },
  "(1.05115350, 1.00237040, -0.04528487, -0.03553557)": {
    "bns": 0.003171774768353528,
    "bbh": 0,
    "nsbh": 0
  },
  "(1.05583090, 1.00269370, -0.01699257, 0.00217864)": {
    "bns": 0.003171774768353528,
    "bbh": 0,
    "nsbh": 0
  },
  "(1.05750850, 1.00522110, 0.04976477, 0.04084063)": {
    "bns": 0.003171774768353528,
    "bbh": 0,
    "nsbh": 0
  },
  "(1.06282700, 1.00542520, 0.01477235, 0.01819510)": {
    "bns": 0.003171774768353528,
    "bbh": 0,
    "nsbh": 0
  },
  "(1.06260960, 1.00151090, 0.04146310, 0.04642340)": {
    "bns": 0.003171774768353528,
    "bbh": 0,
    "nsbh": 0
  },
  "(1.06102430, 1.00075390, 0.03039082, -0.02869671)": {
    "bns": 0.003171774768353528,
    "bbh": 0,
    "nsbh": 0
  },
  "(1.05466260, 1.00536590, 0.02993983, -0.04289035)": {
    "bns": 0.003171774768353528,
    "bbh": 0,
    "nsbh": 0
  },
  "(1.05959070, 1.00935220, -0.04968278, -0.04784238)": {
    "bns": 0.003171774768353528,
    "bbh": 0,
    "nsbh": 0
  },
  "(1.35598710, 1.28331980, 0.04887540, 0.04987683)": {
    "bns": 0.003171774768353528,
    "bbh": 0,
    "nsbh": 0
  },
  "(1.06076960, 1.00674950, -0.04719362, -0.02867722)": {
    "bns": 0.003171774768353528,
    "bbh": 0,
    "nsbh": 0
  },
  "(1.05159270, 1.00040980, -0.02416060, -0.01896738)": {
    "bns": 0.003171774768353528,
    "bbh": 0,
    "nsbh": 0
  },
  "(1.05660520, 1.00328320, 0.04607899, 0.04897213)": {
    "bns": 0.003171774768353528,
    "bbh": 0,
    "nsbh": 0
  },
  "(1.05103280, 1.00003360, -0.04450427, -0.02397291)": {
    "bns": 0.003171774768353528,
    "bbh": 0,
    "nsbh": 0
  },
  "(1.06767330, 1.00048050, 0.03762691, -0.01603813)": {
    "bns": 0.003171774768353528,
    "bbh": 0,
    "nsbh": 0
  },
  "(1.06564240, 1.00764750, -0.00012844, 0.03808345)": {
    "bns": 0.003171774768353528,
    "bbh": 0,
    "nsbh": 0
  },
  "(1.05913100, 1.00889250, -0.04913502, 0.03023006)": {
    "bns": 0.003171774768353528,
    "bbh": 0,
    "nsbh": 0
  },
  "(2.77937040, 1.00073090, -0.49179674, 0.03762154)": {
    "bns": 0.003171774768353528,
    "bbh": 0,
    "nsbh": 0
  },
  "(1.05868220, 1.00168790, -0.01719390, -0.01983377)": {
    "bns": 0.003171774768353528,
    "bbh": 0,
    "nsbh": 0
  },
  "(1.05080260, 1.00436640, 0.01302479, -0.02195284)": {
    "bns": 0.003171774768353528,
    "bbh": 0,
    "nsbh": 0
  },
  "(1.06351980, 1.00739390, -0.04487089, -0.00526133)": {
    "bns": 0.003171774768353528,
    "bbh": 0,
    "nsbh": 0
  },
  "(1.05687120, 1.00799280, -0.03805771, -0.04973550)": {
    "bns": 0.003171774768353528,
    "bbh": 0,
    "nsbh": 0
  },
  "(1.05340500, 1.00562510, 0.02086749, 0.01152028)": {
    "bns": 0.003171774768353528,
    "bbh": 0,
    "nsbh": 0
  },
  "(1.06086240, 1.00595780, -0.00892656, -0.01964206)": {
    "bns": 0.003171774768353528,
    "bbh": 0,
    "nsbh": 0
  },
  "(1.06570250, 1.00074410, -0.04884144, -0.04801600)": {
    "bns": 0.003171774768353528,
    "bbh": 0,
    "nsbh": 0
  },
  "(1.06537610, 1.00284340, 0.04741650, 0.04589840)": {
    "bns": 0.003171774768353528,
    "bbh": 0,
    "nsbh": 0
  },
  "(1.05282370, 1.00111170, -0.03328060, -0.03817405)": {
    "bns": 0.003171774768353528,
    "bbh": 0,
    "nsbh": 0
  },
  "(1.06225510, 1.00464540, 0.04597823, -0.00623563)": {
    "bns": 0.003171774768353528,
    "bbh": 0,
    "nsbh": 0
  },
  "(1.05832270, 1.00638970, 0.00017930, -0.00294264)": {
    "bns": 0.003171774768353528,
    "bbh": 0,
    "nsbh": 0
  },
  "(1.06305960, 1.00780820, -0.01088945, -0.00964901)": {
    "bns": 0.003171774768353528,
    "bbh": 0,
    "nsbh": 0
  },
  "(2.77726210, 1.00653810, -0.14487591, -0.00490281)": {
    "bns": 0.003171774768353528,
    "bbh": 0,
    "nsbh": 0
  },
  "(1.06525390, 1.00027410, -0.01446974, -0.03394233)": {
    "bns": 0.003171774768353528,
    "bbh": 0,
    "nsbh": 0
  },
  "(1.05293700, 1.00678800, -0.00996089, 0.00679364)": {
    "bns": 0.003171774768353528,
    "bbh": 0,
    "nsbh": 0
  },
  "(1.06990890, 1.00584480, -0.02415953, 0.01648278)": {
    "bns": 0.003171774768353528,
    "bbh": 0,
    "nsbh": 0
  },
  "(2.77264300, 1.00698660, -0.99410865, 0.00462940)": {
    "bns": 0.003171774768353528,
    "bbh": 0,
    "nsbh": 0
  },
  "(1.06198170, 1.00080580, -0.00671469, 0.04013303)": {
    "bns": 0.003171774768353528,
    "bbh": 0,
    "nsbh": 0
  },
  "(1.05589250, 1.00034490, 0.00210892, 0.04491682)": {
    "bns": 0.003171774768353528,
    "bbh": 0,
    "nsbh": 0
  },
  "(1.06123570, 1.00605170, 0.04695104, 0.04059532)": {
    "bns": 0.003171774768353528,
    "bbh": 0,
    "nsbh": 0
  },
  "(1.05282730, 1.00023720, 0.04881729, -0.04992448)": {
    "bns": 0.003171774768353528,
    "bbh": 0,
    "nsbh": 0
  },
  "(1.05591470, 1.00832780, 0.03543921, 0.04365045)": {
    "bns": 0.003171774768353528,
    "bbh": 0,
    "nsbh": 0
  },
  "(1.05783250, 1.00916280, -0.03693578, -0.02646167)": {
    "bns": 0.003171774768353528,
    "bbh": 0,
    "nsbh": 0
  },
  "(1.06735010, 1.00126980, 0.02016796, -0.00196863)": {
    "bns": 0.003171774768353528,
    "bbh": 0,
    "nsbh": 0
  }
}
